<?xml version="1.0" encoding="UTF-8" standalone="no"?>
<svg width="27px" height="30px" viewBox="0 0 27 30" version="1.1" xmlns="http://www.w3.org/2000/svg" xmlns:xlink="http://www.w3.org/1999/xlink">
    <!-- Generator: Sketch 40.3 (33839) - http://www.bohemiancoding.com/sketch -->
    <title>Page 1</title>
    <desc>Created with Sketch.</desc>
    <defs>
        <polygon id="path-1" points="27 29.9997 27 0.899585202 0.000186167875 0.899585202 0.000186167875 29.9997 27 29.9997"></polygon>
    </defs>
    <g id="Page-1" stroke="none" stroke-width="1" fill="none" fill-rule="evenodd">
        <g transform="translate(0.000000, -1.000000)">
            <path d="M11.5931,25.306 C11.2081,25.306 10.8891,25.001 10.8751,24.614 C10.8091,22.805 10.7961,20.828 10.7841,18.916 C10.7711,17.015 10.7591,15.049 10.6931,13.263 C10.6781,12.866 10.9881,12.533 11.3851,12.518 C11.7861,12.506 12.1151,12.814 12.1301,13.21 C12.1961,15.018 12.2091,16.995 12.2211,18.907 C12.2331,20.808 12.2461,22.774 12.3121,24.561 C12.3261,24.958 12.0171,25.291 11.6201,25.306 L11.5931,25.306" id="Fill-1" fill="#FF9511"></path>
            <path d="M9.2659,23.0199 C8.9049,23.0199 8.5939,22.7479 8.5529,22.3809 C8.5089,21.9859 8.7929,21.6309 9.1879,21.5869 C11.7599,21.3009 14.3709,21.1379 16.9489,21.1009 L16.9599,21.1009 C17.3519,21.1009 17.6719,21.4159 17.6779,21.8089 C17.6839,22.2059 17.3659,22.5329 16.9699,22.5379 C14.4369,22.5739 11.8729,22.7349 9.3459,23.0149 C9.3189,23.0189 9.2929,23.0199 9.2659,23.0199" id="Fill-3" fill="#FF9511"></path>
            <path d="M11.8168,14.4363 C12.6038,14.6943 13.3898,14.9583 14.1698,15.2383 C15.2118,15.6123 16.3608,16.0303 15.5318,17.3643 C14.5878,18.8833 11.6748,19.4413 10.1128,18.7623 C9.0628,18.3053 8.1468,19.8533 9.2058,20.3133 C11.8668,21.4703 15.9928,20.6083 17.3578,17.8233 C18.9888,14.4923 14.5388,13.4403 12.2948,12.7033 C11.1928,12.3423 10.7208,14.0763 11.8168,14.4363" id="Fill-5" fill="#FF9511"></path>
            <g id="Group-9" transform="translate(0.000000, 0.100500)">
                <mask id="mask-2" fill="white">
                    <use xlink:href="#path-1"></use>
                </mask>
                <g id="Clip-8"></g>
                <path d="M6.7777,3.1707 C7.0437,3.3137 7.3817,3.4757 7.6617,3.6107 C9.2857,4.3907 11.3057,5.3617 11.3807,6.9677 C11.4537,8.5317 9.8147,9.5577 8.0797,10.6437 C6.6937,11.5107 5.1237,12.4927 4.1157,13.8637 C1.8917,16.8897 -0.0723,23.1517 4.1257,27.0747 C6.4597,29.2557 19.0707,28.7817 22.3187,27.2937 C23.7597,26.6347 24.4967,25.2317 24.8597,24.1707 C25.8797,21.2027 25.3637,17.1307 23.6057,14.2697 C22.1087,11.8317 20.4997,11.0787 19.0797,10.4137 C17.9177,9.8697 16.8197,9.3557 16.3167,8.0557 C15.3287,5.5057 18.0977,3.6807 19.7657,2.7367 C18.6997,2.4097 16.5997,2.1357 15.4717,2.5677 C13.3247,3.3897 11.2297,3.3707 9.7207,2.5127 C9.2087,2.2207 7.9437,2.5207 6.7777,3.1707 M12.5417,29.9997 C8.4267,29.9997 4.4257,29.4637 2.9477,28.0817 C-1.9383,23.5157 0.1547,16.5987 2.7537,13.0637 C3.9327,11.4597 5.6387,10.3917 7.1447,9.4497 C8.5627,8.5617 9.7877,7.7957 9.7517,7.0287 C9.7157,6.2517 8.0147,5.4347 6.8897,4.8937 C5.6667,4.3057 4.8587,3.9177 4.7997,3.2107 C4.7827,3.0107 4.8237,2.6287 5.2887,2.3177 C6.5037,1.5037 8.9877,0.3697 10.5967,1.2837 C11.6417,1.8787 13.1857,1.8587 14.8297,1.2287 C16.8157,0.4687 21.0967,1.1117 21.7697,2.2717 C22.0047,2.6767 21.9447,3.2477 21.2837,3.6117 L21.1287,3.6967 C19.1797,4.7617 17.2677,6.0567 17.8567,7.5797 C18.1357,8.2997 18.7277,8.6037 19.8367,9.1227 C21.2987,9.8077 23.3007,10.7447 25.0347,13.5687 C26.9877,16.7477 27.5567,21.2827 26.4187,24.5987 C25.7647,26.5047 24.6037,27.8847 23.0617,28.5907 C21.2647,29.4137 16.8407,29.9997 12.5417,29.9997" id="Fill-7" fill="#FF9511" mask="url(#mask-2)"></path>
            </g>
            <path d="M11.916,10.4911 C11.672,10.4911 11.434,10.3661 11.299,10.1421 C11.095,9.8011 11.205,9.3601 11.545,9.1561 C11.917,8.9331 12.054,7.8511 12.119,7.3301 C12.145,7.1311 12.24,6.1201 11.624,5.7181 C11.291,5.5011 11.198,5.0561 11.414,4.7231 C11.631,4.3911 12.077,4.2971 12.409,4.5141 C13.71,5.3631 13.608,7.0221 13.546,7.5111 C13.392,8.7201 13.181,9.8511 12.285,10.3881 C12.169,10.4581 12.042,10.4911 11.916,10.4911" id="Fill-10" fill="#FF9511"></path>
            <path d="M13.6976,8.3943 C10.6196,8.3943 8.7786,8.0363 8.6706,8.0143 C8.1986,7.9203 7.9096,7.5313 8.0256,7.1453 C8.1406,6.7593 8.6176,6.5243 9.0886,6.6183 C9.1366,6.6273 12.6276,7.2943 18.0066,6.7233 C18.4886,6.6713 18.9296,6.9503 18.9926,7.3433 C19.0556,7.7373 18.7146,8.0983 18.2336,8.1493 C16.5256,8.3303 15.0006,8.3943 13.6976,8.3943" id="Fill-12" fill="#FF9511"></path>
            <path d="M9.1592,29.5382 C9.0392,29.5382 8.9172,29.5082 8.8052,29.4452 C6.8272,28.3232 5.6212,25.6932 5.5702,25.5812 C5.4072,25.2192 5.5672,24.7942 5.9292,24.6302 C6.2912,24.4672 6.7162,24.6272 6.8802,24.9882 C6.8902,25.0112 7.9472,27.3062 9.5142,28.1942 C9.8602,28.3902 9.9812,28.8282 9.7852,29.1742 C9.6532,29.4072 9.4102,29.5382 9.1592,29.5382" id="Fill-14" fill="#FF9511"></path>
            <path d="M16.9466,27.9807 L16.9456,27.9807 L16.9466,27.9807 Z M16.9466,29.4187 C16.5496,29.4187 16.2276,29.0967 16.2276,28.6997 C16.2276,28.3577 16.4666,28.0707 16.7876,27.9987 C17.1476,27.8227 18.4656,26.8097 18.8576,25.8517 C19.0066,25.4847 19.4266,25.3087 19.7946,25.4587 C20.1616,25.6097 20.3376,26.0287 20.1876,26.3967 C19.6066,27.8177 17.6436,29.4187 16.9466,29.4187 L16.9466,29.4187 Z" id="Fill-16" fill="#FF9511"></path>
        </g>
    </g>
</svg>