<?xml version="1.0" encoding="UTF-8" standalone="no"?>
<svg width="27px" height="29px" viewBox="0 0 27 29" version="1.1" xmlns="http://www.w3.org/2000/svg" xmlns:xlink="http://www.w3.org/1999/xlink">
    <!-- Generator: Sketch 40.3 (33839) - http://www.bohemiancoding.com/sketch -->
    <title>Page 1</title>
    <desc>Created with Sketch.</desc>
    <defs>
        <polygon id="path-1" points="26.7716294 29 0 29 0 0.0005 26.7716294 0.0005 26.7716294 29"></polygon>
    </defs>
    <g id="Page-1" stroke="none" stroke-width="1" fill="none" fill-rule="evenodd">
        <g>
            <g id="Group-3">
                <mask id="mask-2" fill="white">
                    <use xlink:href="#path-1"></use>
                </mask>
                <g id="Clip-2"></g>
                <path d="M1.9342,21.2365 C3.1092,22.3885 12.5852,26.9785 13.9082,27.3275 C15.1702,27.1015 23.6072,22.9615 24.8152,21.9825 C25.1962,20.3415 25.1352,8.8965 24.9662,7.1165 C23.5832,6.0195 14.4822,1.8865 13.3022,1.6725 C11.9412,1.8275 3.1262,6.1055 1.8062,7.0645 C1.5722,8.8355 1.6672,19.6715 1.9342,21.2365 L1.9342,21.2365 Z M13.8192,29.0005 C13.7962,29.0005 13.7742,28.9985 13.7542,28.9965 C12.7232,28.8825 6.9352,25.9865 6.8772,25.9565 C0.7042,22.8625 0.4922,22.2285 0.3662,21.8485 C0.0272,20.8325 -0.2218,7.3045 0.2992,6.2625 C0.8762,5.1095 12.0182,0.0005 13.3182,0.0005 C14.2442,0.0005 18.8082,2.0985 20.1852,2.7415 C26.2942,5.5955 26.4462,6.1295 26.5582,6.5185 C26.7912,7.3365 26.7712,14.5285 26.7712,14.6015 C26.7432,22.1895 26.4102,22.6555 26.2112,22.9335 C25.5722,23.8285 15.4372,29.0005 13.8192,29.0005 L13.8192,29.0005 Z" id="Fill-1" fill="#FF9511" mask="url(#mask-2)"></path>
            </g>
            <path d="M13.2189,13.1727 C13.0489,13.1727 12.9589,13.1377 12.8679,13.1007 C12.3029,12.8747 1.8769,7.9517 0.6899,7.3907 C0.2729,7.1937 0.0949,6.6967 0.2909,6.2787 C0.4889,5.8617 0.9859,5.6837 1.4029,5.8807 C5.7559,7.9367 12.2399,10.9897 13.3449,11.4877 C14.5919,11.2627 21.5319,8.5767 22.3179,8.1407 C22.7159,7.9187 23.2269,8.0537 23.4549,8.4487 C23.6819,8.8427 23.5609,9.3417 23.1699,9.5767 C22.7459,9.8307 19.9949,10.9237 18.2549,11.5827 C14.7869,12.8957 13.6919,13.1727 13.2189,13.1727 L13.2189,13.1727 Z" id="Fill-4" fill="#FF9511"></path>
            <path d="M13.5567,24.2014 C13.0967,24.2014 12.7237,23.8304 12.7217,23.3704 L12.6777,12.7754 C12.6757,12.3144 13.0477,11.9384 13.5087,11.9364 L13.5127,11.9364 C13.9717,11.9364 14.3457,12.3084 14.3467,12.7674 L14.3917,23.3624 C14.3937,23.8244 14.0217,24.1994 13.5597,24.2014 L13.5567,24.2014 Z" id="Fill-6" fill="#FF9511"></path>
            <path d="M6.306,16.2831 L6.31,16.2831 L6.306,16.2831 Z M6.709,17.0201 C6.727,17.0341 6.759,17.0401 6.775,17.0361 C6.769,17.0371 6.765,17.0251 6.764,17.0111 C6.749,17.0121 6.73,17.0141 6.709,17.0201 L6.709,17.0201 Z M6.762,18.7061 C6.521,18.7061 6.278,18.6571 6.052,18.5591 C5.598,18.3621 5.257,17.9821 5.116,17.5171 C4.84,16.6101 5.323,15.8321 5.942,15.5321 C6.724,15.1531 7.811,15.3251 8.274,16.2751 C8.625,16.9941 8.393,18.1001 7.5,18.5391 C7.274,18.6501 7.019,18.7061 6.762,18.7061 L6.762,18.7061 Z" id="Fill-8" fill="#FF9511"></path>
            <path d="M17.6255,15.3708 C17.6425,15.3848 17.6755,15.3908 17.6915,15.3868 C17.6835,15.3878 17.6805,15.3768 17.6805,15.3628 C17.6655,15.3628 17.6455,15.3648 17.6255,15.3708 M17.6785,17.0568 C17.4375,17.0568 17.1935,17.0088 16.9675,16.9098 C16.5145,16.7138 16.1735,16.3338 16.0315,15.8678 C15.7575,14.9628 16.2385,14.1848 16.8565,13.8838 C16.8565,13.8838 16.8565,13.8838 16.8565,13.8828 C17.6395,13.5028 18.7265,13.6768 19.1905,14.6268 C19.5405,15.3448 19.3095,16.4518 18.4165,16.8898 C18.1895,17.0018 17.9355,17.0568 17.6785,17.0568" id="Fill-10" fill="#FF9511"></path>
            <path d="M8.8003,5.9204 L8.8043,5.9204 L8.8003,5.9204 Z M9.2043,6.6574 C9.2213,6.6704 9.2543,6.6774 9.2693,6.6734 C9.2613,6.6704 9.2593,6.6624 9.2583,6.6484 C9.2433,6.6484 9.2243,6.6514 9.2043,6.6574 L9.2043,6.6574 Z M9.2563,8.3434 C9.0153,8.3434 8.7723,8.2944 8.5453,8.1964 C8.0923,7.9994 7.7513,7.6194 7.6103,7.1544 C7.3353,6.2484 7.8173,5.4704 8.4353,5.1694 C9.2183,4.7884 10.3053,4.9624 10.7683,5.9134 C11.1193,6.6314 10.8873,7.7374 9.9943,8.1764 C9.7673,8.2874 9.5133,8.3434 9.2563,8.3434 L9.2563,8.3434 Z" id="Fill-12" fill="#FF9511"></path>
            <path d="M13.5913,4.6114 C13.6083,4.6254 13.6403,4.6314 13.6573,4.6274 C13.6493,4.6284 13.6463,4.6174 13.6463,4.6034 C13.6313,4.6034 13.6113,4.6054 13.5913,4.6114 M13.6443,6.2974 C13.4033,6.2974 13.1593,6.2494 12.9333,6.1504 C12.4803,5.9534 12.1393,5.5734 11.9973,5.1084 C11.7223,4.2034 12.2043,3.4254 12.8223,3.1244 L12.8223,3.1234 C13.6063,2.7434 14.6923,2.9174 15.1563,3.8674 C15.5063,4.5854 15.2753,5.6924 14.3823,6.1304 C14.1553,6.2424 13.9013,6.2974 13.6443,6.2974" id="Fill-14" fill="#FF9511"></path>
            <path d="M13.6598,8.5633 C13.6768,8.5773 13.7098,8.5813 13.7258,8.5793 C13.7128,8.5793 13.7158,8.5693 13.7148,8.5553 C13.6998,8.5553 13.6798,8.5573 13.6598,8.5633 M13.7118,10.2503 C13.4708,10.2503 13.2278,10.2013 13.0018,10.1023 C12.5488,9.9053 12.2078,9.5253 12.0658,9.0603 C11.7918,8.1553 12.2728,7.3773 12.8908,7.0763 L12.8908,7.0753 C13.6738,6.6953 14.7608,6.8693 15.2248,7.8193 C15.5748,8.5373 15.3438,9.6433 14.4508,10.0823 C14.2238,10.1943 13.9698,10.2503 13.7118,10.2503" id="Fill-16" fill="#FF9511"></path>
            <path d="M17.644,5.7814 L17.648,5.7814 L17.644,5.7814 Z M18.047,6.5184 C18.064,6.5314 18.097,6.5374 18.113,6.5344 C18.105,6.5324 18.103,6.5234 18.102,6.5094 C18.087,6.5094 18.067,6.5124 18.047,6.5184 L18.047,6.5184 Z M18.1,8.2044 C17.859,8.2044 17.615,8.1554 17.389,8.0574 C16.936,7.8604 16.595,7.4804 16.454,7.0154 C16.179,6.1094 16.66,5.3314 17.278,5.0314 C17.656,4.8464 18.085,4.7934 18.484,4.8804 C18.984,4.9894 19.384,5.3074 19.612,5.7744 C19.963,6.4924 19.731,7.5984 18.838,8.0374 C18.611,8.1484 18.357,8.2044 18.1,8.2044 L18.1,8.2044 Z" id="Fill-18" fill="#FF9511"></path>
            <path d="M21.5427,19.1029 C21.5597,19.1159 21.5917,19.1229 21.6087,19.1189 C21.5997,19.1169 21.5977,19.1089 21.5977,19.0949 C21.5827,19.0949 21.5627,19.0969 21.5427,19.1029 M21.5957,20.7889 C21.3547,20.7889 21.1117,20.7409 20.8857,20.6419 C20.4317,20.4459 20.0907,20.0649 19.9487,19.5999 C19.6737,18.6949 20.1557,17.9169 20.7737,17.6159 C20.7737,17.6159 20.7737,17.6159 20.7737,17.6149 C21.5577,17.2349 22.6437,17.4089 23.1077,18.3589 C23.4577,19.0779 23.2257,20.1839 22.3337,20.6219 C22.1067,20.7339 21.8527,20.7889 21.5957,20.7889" id="Fill-20" fill="#FF9511"></path>
        </g>
    </g>
</svg>